module AuthenticZClothing {
  imports {
      Base
  }	
	item Fat03_AmmoStrap
	{
       DisplayCategory = Clothing,		
		Type = Clothing,
		DisplayName = Bullets Ammo Strap,
		ClothingItem = Fat03_AmmoStrap,
        ClothingItemExtra = AmmoStrap_Bullets,
        ClothingItemExtraOption = Tighten,	
		BodyLocation = AmmoStrap,
		Icon = AmmoStrapFlipped,
		Tooltip = Tooltip_AmmoStrap,
		WorldStaticModel = AmmoStrap_Ground,
		Tooltip = Tooltip_Size3XL,			
	}

    item Fat03_Apron
    {
       DisplayCategory = Clothing,		
		Type = Clothing,
        DisplayName = Apron,		
		ClothingItem = Fat03_Apron,
        ClothingItemExtra = Apron_White,
        ClothingItemExtraOption = Tighten,			
		BodyLocation = TorsoExtra,
		BloodLocation = Apron,
		Icon = ApronIceCream,
		FabricType = Cotton,
		WorldStaticModel = Apron_Ground,
		Tooltip = Tooltip_Size3XL,			
    }
    item Fat03_Coveralls
    {
        DisplayCategory = Clothing,		
        Type = Clothing,
        DisplayName = Coveralls,		
        ClothingItem = Fat03_Coveralls,
        ClothingItemExtra = Boilersuit,
        ClothingItemExtraOption = Tighten,		
        BodyLocation = FullSuit,
        Icon = BoilerSuitBigDaddy,
        BloodLocation = Trousers;Jumper,
        RunSpeedModifier = 0.9,
        ScratchDefense = 10,
        Insulation = 0.45,
        WindResistance = 0.35,
        FabricType = Denim,
		WorldStaticModel = BoilerSuit_Ground,
		Tooltip = Tooltip_Size3XL,			
    }
    item Fat03_HoodieUP
    {
        DisplayCategory = Clothing,		
        Type = Clothing,
        DisplayName = Hoodie,
        ClothingItem = Fat03_HoodieUP,
        ClothingItemExtra = AuthenticZClothing.HoodieUP_WhiteTINT,
        ClothingItemExtraOption = DownHoodie,
        BodyLocation = Jacket,
        BloodLocation = Jumper;FullHelmet,
        Icon = HoodieBlack,
        ScratchDefense = 10,
        Insulation = 0.55,
        WindResistance = 0.2,
        FabricType = Cotton,
        WorldStaticModel = Hoodie_Ground,
		Tooltip = Tooltip_Size3XL,			
    }
    item Fat03_HoodieDOWN
    {
        DisplayCategory = Clothing,		
        Type = Clothing,
        DisplayName = Hoodie,
        ClothingItem = Fat03_HoodieDOWN,
        ClothingItemExtra = AuthenticZClothing.HoodieDOWN_WhiteTINT,
        ClothingItemExtraOption = UpHoodie
        BodyLocation = Jacket,
        BloodLocation = Jumper,
        Icon = HoodieBlack,
        ScratchDefense = 10,
        NeckProtectionModifier = 0.5,
        Insulation = 0.6,
        WindResistance = 0.25,
        FabricType = Cotton,
        WorldStaticModel = Hoodie_Ground,
		Tooltip = Tooltip_Size3XL,			
    }	
    item Fat03_Jacket
    {
        DisplayCategory = Clothing,
        Type = Clothing,
        DisplayName = Jacket,
        ClothingItem = Fat03_Jacket,
        ClothingItemExtra = Jacket_Black,
        ClothingItemExtraOption = Tighten,			
        BodyLocation = Jacket,
        Icon = JacketBlack,
        BloodLocation = Jacket,
        RunSpeedModifier = 0.95,
        CombatSpeedModifier = 0.97,
        BiteDefense = 20,
        ScratchDefense = 40,
        NeckProtectionModifier = 0.5,
        Insulation = 0.40,
        WindResistance = 0.6,
        FabricType = Leather,
        WaterResistance = 0.4,
        Weight = 2,
        WorldStaticModel = JacketCoat_Ground,
		Tooltip = Tooltip_Size3XL,			
    }
    item Fat03_JacketLeather
    {
        DisplayCategory = Clothing,
        Type = Clothing,
        DisplayName = Leather Jacket,
        ClothingItem = Fat03_JacketLeather,
        ClothingItemExtra = Jacket_Black,
        ClothingItemExtraOption = Tighten,		
        BodyLocation = Jacket,
        IconsForTexture = JacketBlack;JacketBlack;JacketBlack,
        BloodLocation = Jacket,
        RunSpeedModifier = 0.95,
        CombatSpeedModifier = 0.97,
        BiteDefense = 20,
        ScratchDefense = 40,
        NeckProtectionModifier = 0.5,
        Insulation = 0.40,
        WindResistance = 0.6,
        FabricType = Leather,
        WaterResistance = 0.4,
        Weight = 2,
        WorldStaticModel = JacketCoat_Ground,
		Tooltip = Tooltip_Size3XL,			
    }	
    item Fat03_JacketLong
    {
        DisplayCategory = Clothing,
        Type = Clothing,
        DisplayName = Leather Jacket,
        ClothingItem = Fat03_JacketLong,
        ClothingItemExtra = JacketLong_Random,
        ClothingItemExtraOption = Tighten,				
        BodyLocation = Jacket,
        IconsForTexture = JacketLongBlack;JacketLongBrown;JacketGreen,
        BloodLocation = LongJacket,
        RunSpeedModifier = 0.93,
        CombatSpeedModifier = 0.97,
        BiteDefense = 20,
        ScratchDefense = 40,
        NeckProtectionModifier = 0.5,
        Insulation = 0.65,
        WindResistance = 0.35,
        FabricType = Leather,
        WaterResistance = 0.45,
        Weight = 2,
        WorldStaticModel = JacketLong_Ground,
		Tooltip = Tooltip_Size3XL,			
    }
    item Fat03_Jeans
    {
        DisplayCategory = Clothing,
        Type = Clothing,
        DisplayName = Jeans,
        ClothingItem = Fat03_Jeans,
        ClothingItemExtra = TrousersMesh_DenimLight,
        ClothingItemExtraOption = Tighten,		
        BodyLocation = Pants,
        BloodLocation = Trousers,
        Icon = TrousersDenimBlue,
        ScratchDefense = 5,
        Insulation = 0.30,
        WindResistance = 0.4,
        WorldStaticModel = Trousers_Ground,
		Tooltip = Tooltip_Size3XL,			
    }	
    item Fat03_Overalls
    {
       DisplayCategory = Clothing,			
        Type = Clothing,
        DisplayName = Overalls,
        ClothingItem = Fat03_Overalls,
        ClothingItemExtra = Dungarees,
        ClothingItemExtraOption = Tighten,		
        BodyLocation = FullSuit,
        Icon = OverallsDenim,
        BloodLocation = Trousers;Jumper,
        RunSpeedModifier = 0.9,
        ScratchDefense = 10,
        Insulation = 0.65,
        WindResistance = 0.45,
        FabricType = Denim,
		WorldStaticModel = BoilerSuit_Ground,
		Tooltip = Tooltip_Size3XL,			
    }		
    item Fat03_PonchoUP
    {
        DisplayCategory = Clothing,		
        Type = Clothing,
        DisplayName = Black Poncho,
        ClothingItem = Fat03_PonchoUP,
        ClothingItemExtra = PonchoGreenDOWN,
        ClothingItemExtraOption = DownHoodie,		
        BodyLocation = JacketHat,
        Icon = HoodieWhite,
        ColorRed = 20,
        ColorGreen = 20,
        ColorBlue = 20,
        BloodLocation = Shirt;FullHelmet;Trousers,
        RunSpeedModifier = 0.9,
        ScratchDefense = 10,
        Insulation = 0.1,
        WindResistance = 0.75,
        WaterResistance = 1.0,
        FabricType = Denim,		
        WorldStaticModel = Poncho_Ground,
		Tooltip = Tooltip_Size3XL,			
    }
    item Fat03_PonchoDown
    {
        DisplayCategory = Clothing,		
        Type = Clothing,
        DisplayName = Black Poncho,
        ClothingItem = PonchoBlackDOWN,
        ClothingItemExtra = PonchoGreen,
        ClothingItemExtraOption = UpHoodie,			
        BodyLocation = Jacket,
        Icon = HoodieWhite,
        ColorRed = 20,
        ColorGreen = 20,
        ColorBlue = 20,
        BloodLocation = Shirt;FullHelmet;Trousers,
        RunSpeedModifier = 0.9,
        ScratchDefense = 10,
        NeckProtectionModifier = 0.5,
        Insulation = 0.15,
        WindResistance = 0.8,
        WaterResistance = 1.0,
        FabricType = Denim,			
        WorldStaticModel = Poncho_Ground,
		Tooltip = Tooltip_Size3XL,			
    }
    item Fat03_SportShorts
    {
       DisplayCategory = Clothing,		
        Type = Clothing,
        DisplayName = Sports Pants,
        ClothingItem = Fat03_SportShorts,
        ClothingItemExtra = Shorts_ShortSport,
        ClothingItemExtraOption = Tighten,		
        BodyLocation = Pants,
        IconsForTexture = ShortsLongAthleticBlue;ShortsLongAthleticGreen;ShortsLongAthleticRed;ShortsLongAthleticPurple;ShortsLongDenim;ShortsLongDenimBlack;ShortsLongDenimDark;ShortsLongDenim;ShortsLongDenimBlack;ShortsLongDenimDark;ShortsLongDenim;ShortsLongDenimBlack;ShortsLongDenimDark;ShortsLongDenim;ShortsLongDenimBlack;ShortsLongDenimDark;ShortsLongDenim;ShortsLongDenimBlack;ShortsLongDenimDark,
        BloodLocation = Trousers,
        Insulation = 0.15,
        WindResistance = 0.05,
        FabricType = Cotton,
        WorldStaticModel = Trousers_Ground,		
		Tooltip = Tooltip_Size3XL,			
    }
    item Fat03_ShellPants
    {
        DisplayCategory = Clothing,
        Type = Clothing,
        DisplayName = Shell Suit Trousers,
        ClothingItem = Fat03_ShellPants,
        ClothingItemExtra = Shoes_Black,
        ClothingItemExtraOption = Tighten,		
        BodyLocation = Pants,
        BloodLocation = Trousers,
        IconsForTexture = TracksuitPantsBlack;TracksuitPantsBlue;TracksuitPantsGreen;TracksuitPantsTeal;TracksuitPantsGeneric;TrousersAthleticVegan;TrousersAthleticGrey;TrousersBill;TrousersBrad;Trousers;Trousers;Trousers;Trousers;Trousers;Trousers;Trousers;Trousers;Trousers;Trousers;Trousers;Trousers;Trousers;Trousers;Trousers,
        ScratchDefense = 5,
        Insulation = 0.30,
        WindResistance = 0.4,
        WorldStaticModel = Trousers_Shellsuit_Ground,
		Tooltip = Tooltip_Size3XL,			
    }
    item Fat03_SuitPants
    {
        DisplayCategory = Clothing,
        Type = Clothing,
        DisplayName = Suit Pants,
        ClothingItem = Fat03_SuitPants,
        ClothingItemExtra = Trousers_Suit,
        ClothingItemExtraOption = Tighten,		
        BodyLocation = Pants,
        BloodLocation = Trousers,
        Icon = Trousers,
        ScratchDefense = 5,
        Insulation = 0.30,
        WindResistance = 0.4,
        FabricType = Cotton,		
        WorldStaticModel = Trousers_Shellsuit_Ground,
		Tooltip = Tooltip_Size3XL,			
    }	
	item Fat03_Shoes
	{
	    DisplayCategory = Clothing,
		Type = Clothing,
		DisplayName = Shoes,
		ClothingItem = Fat03_Shoes,
        ClothingItemExtra = Shoes_Black,
        ClothingItemExtraOption = Tighten,			
		BodyLocation = Shoes,
		BloodLocation = Shoes,
		Icon = Shoes,
		StompPower = 2.1,
		ConditionLowerChanceOneIn = 12,
        ConditionMax = 24,
        RunSpeedModifier = 0.95,
        RemoveOnBroken = false,
        ScratchDefense = 20,
        BiteDefense = 10,
        Insulation = 0.25,
        WindResistance = 0.25,
        WaterResistance = 0.25,
        WorldStaticModel = Shoes_Ground,
		Tooltip = Tooltip_Size3XL,			
	}	
    item Fat03_TShirtLongBlart
    {
        DisplayCategory = Clothing,		
        Type = Clothing,
        DisplayName = Security Shirt,
        ClothingItem = Fat03_TShirtLongBlart,
        ClothingItemExtra = Shirt_OfficerWhite,
        ClothingItemExtraOption = Tighten,		
        BodyLocation = Jacket,
        Icon = TshirtGeneric,
        Insulation = 0.3,
        WindResistance = 0.35,
        FabricType = Cotton,
		WorldStaticModel = Shirt_Ground,	
		Tooltip = Tooltip_Size3XL,			
    }	
    item Fat03_TShirt
    {
        DisplayCategory = Clothing,		
        Type = Clothing,
        DisplayName = T-,
        ClothingItem = Fat03_TShirt,
        ClothingItemExtra = Tshirt_WhiteTINT,
        ClothingItemExtraOption = Tighten,		
        BodyLocation = Jacket,
        Icon = TshirtGeneric,
        Insulation = 0.3,
        WindResistance = 0.35,
        FabricType = Cotton,
		WorldStaticModel = TShirt_Ground,	
		Tooltip = Tooltip_Size3XL,			
    }
    item Fat03_Vest_BlackOpen
    {
        DisplayCategory = Clothing,
        Type = Clothing,
        DisplayName = Vest,			
        ClothingItem = Fat03_Vest_BlackOpen,
        ClothingItemExtra = Vest_HighViz,
        ClothingItemExtraOption = Tighten,	
        BodyLocation = TorsoExtra,
        Icon = Vest_Black,
        BloodLocation = ShirtNoSleeves,
        WorldStaticModel = HuntingVest_Ground,
		Tooltip = Tooltip_Size3XL,			
    }		
    item Fat03_Vest_HighViz
    {
        DisplayCategory = Clothing,
        Type = Clothing,
        DisplayName = Vest,			
        ClothingItem = Fat03_Vest_HighViz,
        ClothingItemExtra = Vest_HighViz,
        ClothingItemExtraOption = Tighten,		
        BodyLocation = TorsoExtra,
        IconsForTexture = ConstructionVest;Huntingvest_Orange;Huntingvest_Grey;Huntingvest_Camo;Huntingvest_Orange;Huntingvest_Grey;Huntingvest_Camo;SweaterVestWhite;SweaterVestArgyle,
        BloodLocation = ShirtNoSleeves,
        WorldStaticModel = HuntingVest_Ground,	
		Tooltip = Tooltip_Size3XL,			
    }
    item Fat03_Vest_TankTop
    {
        DisplayCategory = Clothing,
        Type = Clothing,
        DisplayName = Tank Top (33XL),			
        ClothingItem = Fat03_Vest_TankTop,
        ClothingItemExtra = Vest_HighViz,
        ClothingItemExtraOption = Tighten,		
        BodyLocation = TorsoExtra,
        IconsForTexture = ConstructionVest;Huntingvest_Orange;Huntingvest_Grey;Huntingvest_Camo;Huntingvest_Orange;Huntingvest_Grey;Huntingvest_Camo;SweaterVestWhite;SweaterVestArgyle,
        BloodLocation = ShirtNoSleeves,
        WorldStaticModel = HuntingVest_Ground,	
		Tooltip = Tooltip_Size3XL,			
    }
	
    item Fat03_Dress_Knees
    {
        DisplayCategory = Clothing,
        Type = Clothing,
        DisplayName = Knee-length Dress,
        ClothingItem = Fat03_Dress_Knees,
        ClothingItemExtra = Dress_Knees,
        ClothingItemExtraOption = Tighten,		
        BodyLocation = Dress,
        BloodLocation = ShortsShort;Shirt,
        Icon = DressShortWhite,
        Insulation = 0.15,
        WindResistance = 0.1,
        FabricType = Cotton,
        WorldStaticModel = Dress_Short_Ground,
		Tooltip = Tooltip_Size3XL,			
    }
    item Fat03_DressKnees_Straps
    {
        DisplayCategory = Clothing,
        Type = Clothing,
        DisplayName = Straps Knee-length Dress,
        ClothingItem = Fat03_DressKnees_Straps,
        ClothingItemExtra = DressKnees_Straps,
        ClothingItemExtraOption = Tighten,		
        BodyLocation = Dress,
        BloodLocation = ShortsShort;Shirt,
        Icon = DressGeneric,
        Insulation = 0.15,
        WindResistance = 0.1,
        FabricType = Cotton,
        WorldStaticModel = Dress_Knees_Straps_Ground,
		Tooltip = Tooltip_Size3XL,			
    }
     item Fat03_Dress_SmallStrapless
     {
         DisplayCategory = Clothing,
         Type = Clothing,
         DisplayName = Strapless Small Dress,
         ClothingItem = Fat03_Dress_SmallStrapless,
         ClothingItemExtra = Dress_SmallStrapless,
         ClothingItemExtraOption = Tighten,			 
         BodyLocation = Dress,
         BloodLocation = ShortsShort;Shirt,
         Icon = DressGenericStrapless,
         Insulation = 0.15,
         WindResistance = 0.1,
         FabricType = Cotton,
         WorldStaticModel = Dress_Small_Strapless_Ground,
		 Tooltip = Tooltip_Size3XL,			 
     }
     item Fat03_Dress_SmallStraps
     {
         DisplayCategory = Clothing,
         Type = Clothing,
         DisplayName = Straps Small Dress,
         ClothingItem = Fat03_Dress_SmallStraps,
         ClothingItemExtra = Dress_SmallStraps,
         ClothingItemExtraOption = Tighten,			 
         BodyLocation = Dress,
         BloodLocation = ShortsShort;Shirt,
         Icon = DressGeneric,
         Insulation = 0.15,
         WindResistance = 0.1,
         FabricType = Cotton,
         WorldStaticModel = Dress_Small_Straps_Ground,
		 Tooltip = Tooltip_Size3XL,			 
     }
    item Fat03_Dress_SatinNegligee
    {
        DisplayCategory = Clothing,
        Type = Clothing,
        DisplayName = Satin Negligee,
        ClothingItem = Fat03_Dress_SatinNegligee,
        ClothingItemExtra = Dress_SatinNegligee,
        ClothingItemExtraOption = Tighten,		
        BodyLocation = Dress,
        BloodLocation = ShortsShort;Shirt,
        Icon = NegligeeGeneric,
        Insulation = 0.15,
        WindResistance = 0.1,
        FabricType = Cotton,
        WorldStaticModel = Dress_Small_Straps_Ground,
		Tooltip = Tooltip_Size3XL,			
    }
    item Fat03_Dress_Long
    {
        DisplayCategory = Clothing,
        Type = Clothing,
        DisplayName = Long Dress,
        ClothingItem = Fat03_Dress_Long,
        ClothingItemExtra = Dress_Long,
        ClothingItemExtraOption = Tighten,		
        BodyLocation = Dress,
        BloodLocation = Trousers;Shirt,
        Icon = DressLongWhite,
        RunSpeedModifier = 0.90,
        Insulation = 0.3,
        WindResistance = 0.2,
        FabricType = Cotton,
        WorldStaticModel = Dress_Long_Ground,
		Tooltip = Tooltip_Size3XL,			
    }
    item Fat03_Dress_long_Straps
    {
        DisplayCategory = Clothing,
        Type = Clothing,
        DisplayName = Long Dress,
        ClothingItem = Fat03_Dress_long_Straps,
        ClothingItemExtra = Dress_long_Straps,
        ClothingItemExtraOption = Tighten,		
        BodyLocation = Dress,
        BloodLocation = Trousers;Shirt,
        Icon = DressGeneric,
        RunSpeedModifier = 0.90,
        Insulation = 0.3,
        WindResistance = 0.2,
        FabricType = Cotton,
        WorldStaticModel = Dress_Straps_Ground,
		Tooltip = Tooltip_Size3XL,			
    }
    item Fat03_Dress_Normal
    {
        DisplayCategory = Clothing,
        Type = Clothing,
        DisplayName = Dress,
        ClothingItem = Fat03_Dress_Normal,
        ClothingItemExtra = Dress_Normal,
        ClothingItemExtraOption = Tighten,			
        BodyLocation = Dress,
        BloodLocation = Trousers;Shirt,
        Icon = DressMediumWhite,
        RunSpeedModifier = 0.93,
        Insulation = 0.20,
        WindResistance = 0.15,
        FabricType = Cotton,
        WorldStaticModel = Dress_Mid_Ground,
		Tooltip = Tooltip_Size3XL,			
    }
    item Fat03_Dress_Straps
    {
        DisplayCategory = Clothing,
        Type = Clothing,
        DisplayName = Straps Dress,
        ClothingItem = Fat03_Dress_Straps,
        ClothingItemExtra = Dress_Straps,
        ClothingItemExtraOption = Tighten,		
        BodyLocation = Dress,
        BloodLocation = Trousers;Shirt,
        Icon = DressGeneric,
        RunSpeedModifier = 0.93,
        Insulation = 0.20,
        WindResistance = 0.15,
        FabricType = Cotton,
        WorldStaticModel = Dress_Straps_Ground,
		Tooltip = Tooltip_Size3XL,			
    }
    item Fat03_Dress_Short
    {
        DisplayCategory = Clothing,
        Type = Clothing,
        DisplayName = Short Dress,
        ClothingItem = Fat03_Dress_Short,
        ClothingItemExtra = Dress_Short,
        ClothingItemExtraOption = Tighten,		
        BodyLocation = Dress,
        BloodLocation = ShortsShort;Shirt,
        Icon = DressShortWhite,
        Insulation = 0.1,
        WindResistance = 0.05,
        FabricType = Cotton,
        WorldStaticModel = Dress_Short_Ground,
		Tooltip = Tooltip_Size3XL,			
    }	
    item Fat03_Skirt_Knees
    {
        DisplayCategory = Clothing,
        Type = Clothing,
        DisplayName = Knee-length Skirt,
        ClothingItem = Fat03_Skirt_Knees,
        ClothingItemExtra = Skirt_Knees,
        ClothingItemExtraOption = Tighten,		
        BodyLocation = Skirt,
        Icon = SkirtGeneric,
        BloodLocation = ShortsShort,
        Insulation = 0.1,
        WindResistance = 0.01,
        FabricType = Cotton,
        WorldStaticModel = Skirt_Short_Ground,
		Tooltip = Tooltip_Size3XL,		
    }
    item Fat03_Skirt_Long
    {
        DisplayCategory = Clothing,
        Type = Clothing,
        DisplayName = Long Skirt,
        ClothingItem = Fat03_Skirt_Long,
        ClothingItemExtra = Skirt_Long,
        ClothingItemExtraOption = Tighten,		
        BodyLocation = Skirt,
        Icon = SkirtLongWhite,
        BloodLocation = Trousers,
        RunSpeedModifier = 0.93,
        Insulation = 0.3,
        WindResistance = 0.2,
        FabricType = Cotton,
        WorldStaticModel = Skirt_Long_Ground,
		Tooltip = Tooltip_Size3XL,			
    }	
    item Fat03_Skirt_Normal
    {
        DisplayCategory = Clothing,
        Type = Clothing,
        DisplayName = Skirt,
        ClothingItem = Fat03_Skirt_Normal,
        ClothingItemExtra = Skirt_Normal,
        ClothingItemExtraOption = Tighten,		
        BodyLocation = Skirt,
        Icon = SkirtGeneric,
        BloodLocation = Trousers,
        RunSpeedModifier = 0.93,
        Insulation = 0.25,
        WindResistance = 0.1,
        FabricType = Cotton,
        WorldStaticModel = Skirt_Mid_Ground,
		Tooltip = Tooltip_Size3XL,			
    }
    item Fat03_Skirt_Short
    {
        DisplayCategory = Clothing,
        Type = Clothing,
        DisplayName = Short Skirt,
        ClothingItem = Fat03_Skirt_Short,
        ClothingItemExtra = Skirt_Short,
        ClothingItemExtraOption = Tighten,		
        BodyLocation = Skirt,
        Icon = SkirtGeneric,
        BloodLocation = ShortsShort,
        Insulation = 0.05,
        FabricType = Cotton,
        WorldStaticModel = Skirt_Short_Ground,
		Tooltip = Tooltip_Size3XL,			
    }	
}